C:\Users\Thai P\Documents\workspace-spring-tool-suite-4-4.1.0.RELEASE\TikiDemo\src\main\java\com\tiki\productdemo\entity\ProductDetail.java
C:\Users\Thai P\Documents\workspace-spring-tool-suite-4-4.1.0.RELEASE\TikiDemo\src\main\java\com\tiki\productdemo\entity\Attribute.java
C:\Users\Thai P\Documents\workspace-spring-tool-suite-4-4.1.0.RELEASE\TikiDemo\src\main\java\com\tiki\productdemo\entity\Price.java
C:\Users\Thai P\Documents\workspace-spring-tool-suite-4-4.1.0.RELEASE\TikiDemo\src\main\java\com\tiki\productdemo\service\DataService.java
C:\Users\Thai P\Documents\workspace-spring-tool-suite-4-4.1.0.RELEASE\TikiDemo\src\main\java\com\tiki\productdemo\entity\AttributeType.java
C:\Users\Thai P\Documents\workspace-spring-tool-suite-4-4.1.0.RELEASE\TikiDemo\src\main\java\com\tiki\productdemo\entity\ImageFile.java
C:\Users\Thai P\Documents\workspace-spring-tool-suite-4-4.1.0.RELEASE\TikiDemo\src\main\java\com\tiki\productdemo\repository\BaseRepository.java
C:\Users\Thai P\Documents\workspace-spring-tool-suite-4-4.1.0.RELEASE\TikiDemo\src\main\java\com\tiki\productdemo\repository\IBaseRepository.java
C:\Users\Thai P\Documents\workspace-spring-tool-suite-4-4.1.0.RELEASE\TikiDemo\src\main\java\com\tiki\productdemo\TikiDemoApplication.java
C:\Users\Thai P\Documents\workspace-spring-tool-suite-4-4.1.0.RELEASE\TikiDemo\src\main\java\com\tiki\productdemo\entity\Product.java
C:\Users\Thai P\Documents\workspace-spring-tool-suite-4-4.1.0.RELEASE\TikiDemo\src\main\java\com\tiki\productdemo\entity\DataType.java
